STAT 302, Lecture Slides 3
…
# <TT>select()</TT>: Column selection

---

Use `select()` to choose certain columns.

```r
gapminder %>% 
  select(lifeExp, gdpPercap)
```

```
## # A tibble: 1,704 × 2
##    lifeExp gdpPercap
##      <dbl>     <dbl>
##  1    28.8      779.
##  2    30.3      821.
##  3    32.0      853.
##  4    34.0      836.
##  5    36.1      740.
##  6    38.4      786.
##  7    39.9      978.
##  8    40.8      852.
##  9    41.7      649.
## 10    41.8      635.
## # … with 1,694 more rows
```

---
Use `select()` to choose certain columns.
We can also use `select()` to remove certain columns by putting a `-` symbol in front.

```r
gapminder %>% 
  select(-lifeExp, -gdpPercap)
```

```
## # A tibble: 1,704 × 5
##    country     continent  year      pop lifeExpCat
##    <fct>       <fct>     <int>    <int> <lgl>     
##  1 Afghanistan Asia       1952  8425333 FALSE     
##  2 Afghanistan Asia       1957  9240934 FALSE     
##  3 Afghanistan Asia       1962 10267083 FALSE     
##  4 Afghanistan Asia       1967 11537966 FALSE     
##  5 Afghanistan Asia       1972 13079460 FALSE     
##  6 Afghanistan Asia       1977 14880372 FALSE     
##  7 Afghanistan Asia       1982 12881816 FALSE     
##  8 Afghanistan Asia       1987 13867957 FALSE     
##  9 Afghanistan Asia       1992 16317921 FALSE     
## 10 Afghanistan Asia       1997 22227415 FALSE     
## # … with 1,694 more rows
```
…
---
# <TT>rename()</TT>: ...renaming!

`rename(data, NEW_VAR_NAME = OLD_VAR_NAME)`

```r
gapminder %>%
  rename(life_exp = lifeExp)
```

```
## # A tibble: 1,704 × 7
##    country     continent  year life_exp      pop gdpPercap lifeExpCat
##    <fct>       <fct>     <int>    <dbl>    <int>     <dbl> <lgl>     
##  1 Afghanistan Asia       1952     28.8  8425333      779. FALSE     
##  2 Afghanistan Asia       1957     30.3  9240934      821. FALSE     
##  3 Afghanistan Asia       1962     32.0 10267083      853. FALSE     
##  4 Afghanistan Asia       1967     34.0 11537966      836. FALSE     
##  5 Afghanistan Asia       1972     36.1 13079460      740. FALSE     
##  6 Afghanistan Asia       1977     38.4 14880372      786. FALSE     
##  7 Afghanistan Asia       1982     39.9 12881816      978. FALSE     
##  8 Afghanistan Asia       1987     40.8 13867957      852. FALSE     
##  9 Afghanistan Asia       1992     41.7 16317921      649. FALSE     
## 10 Afghanistan Asia       1997     41.8 22227415      635. FALSE     
## # … with 1,694 more rows
```
…
---

## `pivot_longer()`

We can use `pivot_longer()` to go from data in "wide" form to data in "long" form.

```r
relig_income %>%
  pivot_longer(cols = contains("$"), 
               names_to = "income",  
               values_to = "count")
```

```
## # A tibble: 144 × 5
##    religion `>150k` `Don't know/refused` income    count
##    <chr>      <dbl>                <dbl> <chr>     <dbl>
##  1 Agnostic      84                   96 <$10k        27
##  2 Agnostic      84                   96 $10-20k      34
##  3 Agnostic      84                   96 $20-30k      60
##  4 Agnostic      84                   96 $30-40k      81
##  5 Agnostic      84                   96 $40-50k      76
##  6 Agnostic      84                   96 $50-75k     137
##  7 Agnostic      84                   96 $75-100k    122
##  8 Agnostic      84                   96 $100-150k   109
##  9 Atheist       74                   76 <$10k        12
## 10 Atheist       74                   76 $10-20k      27
## # … with 134 more rows
```
---

## `pivot_longer()`

Looks like we missed a few of the income column names. 

```r
relig_income %>%
  pivot_longer(cols = c(contains("$"), ">150k", "Don't know/refused"), 
               names_to = "income",
               values_to = "count") 
```

```
## # A tibble: 180 × 3
##    religion income             count
##    <chr>    <chr>              <dbl>
##  1 Agnostic <$10k                 27
##  2 Agnostic $10-20k               34
##  3 Agnostic $20-30k               60
##  4 Agnostic $30-40k               81
##  5 Agnostic $40-50k               76
##  6 Agnostic $50-75k              137
##  7 Agnostic $75-100k             122
##  8 Agnostic $100-150k            109
##  9 Agnostic >150k                 84
## 10 Agnostic Don't know/refused    96
## # … with 170 more rows
```
…
---

## `pivot_wider()`

```r
us_rent_income %>%
  pivot_wider(names_from = variable, values_from = c(estimate, moe))
```

```
## # A tibble: 52 × 6
##    GEOID NAME                 estimate_income estimate_rent moe_income moe_rent
##    <chr> <chr>                          <dbl>         <dbl>      <dbl>    <dbl>
##  1 01    Alabama                        24476           747        136        3
##  2 02    Alaska                         32940          1200        508       13
##  3 04    Arizona                        27517           972        148        4
##  4 05    Arkansas                       23789           709        165        5
##  5 06    California                     29454          1358        109        3
##  6 08    Colorado                       32401          1125        109        5
##  7 09    Connecticut                    35326          1123        195        5
##  8 10    Delaware                       31560          1076        247       10
##  9 11    District of Columbia           43198          1424        681       17
## 10 12    Florida                        25952          1077         70        3
## # … with 42 more rows
```
…
